…
Also (I prefer this actually):

``` r
library(dplyr)
library(janitor)
mtcars %>% 
  mutate(cars = row.names(.),
         cars = str_extract(cars, "[A-Za-z\\b]*")) %>% 
  count(cars, am) %>% 
  adorn_totals()
#> # A tibble: 24 x 4
#>    cars        am     n Total
#>    <chr>    <dbl> <int> <dbl>
#>  1 AMC         0.     1    1.
#>  2 Cadillac    0.     1    1.
#>  3 Camaro      0.     1    1.
#>  4 Chrysler    0.     1    1.
#>  5 Datsun      1.     1    2.
#>  6 Dodge       0.     1    1.
#>  7 Duster      0.     1    1.
#>  8 Ferrari     1.     1    2.
#>  9 Fiat        1.     2    3.
#> 10 Ford        1.     1    2.
#> # ... with 14 more rows
```
